Online Retail detailed EDA
…
These seems to be like bad adjustments, Amazon fee, Postage, Manual, Dotcom Postage are not the actual contributors to the sale. Well be removing the observations relating to them. But first checking the relation of cancelled orders with top grossing sales by comparing the exact total sales amount.

#Step-2
# Selecting top total sales with respective invoices tocheck for cancelled orders
p4 <- data %>%
  select(InvoiceNo, StockCode, Description, Quantity, Total_sales, InvoicePrefix)%>%
  filter(abs(Total_sales) %in% c(168469.60, 77183.60, 38970.00, 13541.33, 11062.06, 8142.75, 7144.72, 6539.40, 4992.00, 4921.50, 4781.60, 4632.00, 4522.50, 4401.00, 4287.63, 4254.50, 4176.00, 4161.06)) %>%
  arrange(desc(abs(Total_sales)))
p4

## # A tibble: 28 x 6
##    InvoiceNo StockCode Description       Quantity Total_sales InvoicePrefix
##    <chr>     <chr>     <fct>                <dbl>       <dbl> <chr>        
##  1 581483    23843     PAPER CRAFT , LI~    80995     168470. R            
##  2 C581484   23843     PAPER CRAFT , LI~   -80995    -168470. C            
##  3 541431    23166     MEDIUM CERAMIC T~    74215      77184. R            
##  4 C541433   23166     MEDIUM CERAMIC T~   -74215     -77184. C            
##  5 556444    22502     PICNIC BASKET WI~       60      38970  R            
##  6 C556445   M         Manual                  -1     -38970  C            
##  7 C537630   AMAZONFEE AMAZON FEE              -1     -13541. C            
##  8 537632    AMAZONFEE AMAZON FEE               1      13541. R            
##  9 C537651   AMAZONFEE AMAZON FEE              -1     -13541. C            
## 10 A563185   B         Adjust bad debt          1      11062. A            
## # ... with 18 more rows
…
